Gov 50 Final Project
…
With this in mind, we can select the following dates from the covid_c and covid_d data sets focusing on the abovementioned states and their counties:

-> Nov 3, 2020: “DE”, “IN”, “MO”, “MT”, “NH”, “NC”, “ND”, “UT”, “VT”, “WA”, “WV”

-> Nov 8, 2022: “AL”, “AK”, “AZ”, “AR”, “CA”, “C0”, “CT”, “FL”, “GA”, “HI”, “ID”,“IL”, “IA”, “KS”, “ME”, “MD”, “MA”, “MI”, “MN”, “NE”, “NV”, “NH”, “NM”, “NY”, “OH”, “OK”, “OR”, “PA”, “RI”, “SC”, “SD”, “TN”, “TX”, “VT”, “WI”, “WY”

covid_c |>
  group_by(Combined_Key) |>
  select(X11.3.20, X11.8.22)

# A tibble: 3,342 × 3
# Groups:   Combined_Key [3,342]
   Combined_Key          X11.3.20 X11.8.22
   <chr>                    <int>    <int>
 1 Autauga, Alabama, US      2210    18511
 2 Baldwin, Alabama, US      7054    65973
 3 Barbour, Alabama, US      1077     6930
 4 Bibb, Alabama, US          900     7575
 5 Blount, Alabama, US       2204    17320
 6 Bullock, Alabama, US       658     2818
 7 Butler, Alabama, US       1032     6059
 8 Calhoun, Alabama, US      4996    38545
 9 Chambers, Alabama, US     1449    10039
10 Cherokee, Alabama, US      819     6060
# ℹ 3,332 more rows

covid_d |>
  group_by(Combined_Key) |>
  select(X11.3.20, X11.8.22)

# A tibble: 3,342 × 3
# Groups:   Combined_Key [3,342]
   Combined_Key          X11.3.20 X11.8.22
   <chr>                    <int>    <int>
 1 Autauga, Alabama, US        31      228
 2 Baldwin, Alabama, US        74      716
 3 Barbour, Alabama, US         9      103
 4 Bibb, Alabama, US           15      108
 5 Blount, Alabama, US         25      258
 6 Bullock, Alabama, US        17       54
 7 Butler, Alabama, US         41      130
 8 Calhoun, Alabama, US        65      659
 9 Chambers, Alabama, US       47      169
10 Cherokee, Alabama, US       15       87
# ℹ 3,332 more rows
…
electoral_consistency_2020_final <- electoral_consistency_ate_2020_1 |>
  left_join(covid_d_2020, by = "FIPS")

## Merging the 2022 elections' data frame with the 2022 COVID-19 data frame
electoral_consistency_ate_2022_1 <- electoral_consistency_ate_2022 |>
  left_join(covid_c_2022, by = "FIPS")

electoral_consistency_2022_final <- electoral_consistency_ate_2022_1 |>
  left_join(covid_d_2022, by = "FIPS")

electoral_consistency_2022_final

# A tibble: 2,149 × 6
   FIPS  mean_diff_pre_c mean_diff_post_c   ATE n_conf_cases_22
   <chr>           <dbl>            <dbl> <dbl>           <dbl>
 1 1001           -36.9             -55.6  18.8           18511
 2 1003           -51.9             -66.3  14.4           65973
 3 1005            11.1             -20.4  31.5            6930
 4 1007           -29.1             -63.7  34.7            7575
 5 1009           -48.3             -84.1  35.8           17320
 6 1011            49.0              37.8  11.1            2818
 7 1013            -5.21            -32.3  27.1            6059
 8 1015           -20.3             -50.6  30.3           38545
 9 1017            -6.50            -33.6  27.1           10039
10 1019           -23.4             -80.6  57.2            6060
# ℹ 2,139 more rows
# ℹ 1 more variable: n_conf_deaths_22 <dbl>
…
